<?xml version="1.0" encoding="UTF-8" standalone="no"?>
<!-- Created with Inkscape (http://www.inkscape.org/) -->

<svg
   width="37.630829mm"
   height="45.504951mm"
   viewBox="0 0 37.630829 45.504951"
   version="1.1"
   id="svg1"
   inkscape:version="1.3 (0e150ed6c4, 2023-07-21)"
   sodipodi:docname="hexifall-doc-fig-tmpl.svg"
   xmlns:inkscape="http://www.inkscape.org/namespaces/inkscape"
   xmlns:sodipodi="http://sodipodi.sourceforge.net/DTD/sodipodi-0.dtd"
   xmlns="http://www.w3.org/2000/svg"
   xmlns:svg="http://www.w3.org/2000/svg">
  <sodipodi:namedview
     id="namedview1"
     pagecolor="#ffffff"
     bordercolor="#666666"
     borderopacity="1.0"
     inkscape:showpageshadow="2"
     inkscape:pageopacity="0.0"
     inkscape:pagecheckerboard="0"
     inkscape:deskcolor="#d1d1d1"
     inkscape:document-units="mm"
     inkscape:zoom="1.3631646"
     inkscape:cx="142.6827"
     inkscape:cy="444.92061"
     inkscape:window-width="1366"
     inkscape:window-height="715"
     inkscape:window-x="-8"
     inkscape:window-y="-8"
     inkscape:window-maximized="1"
     inkscape:current-layer="layer1"
     inkscape:export-bgcolor="#ffffff00"
     showgrid="false" />
  <defs
     id="defs1" />
  <g
     inkscape:label="圖層 1"
     inkscape:groupmode="layer"
     id="layer1"
     transform="translate(-14.885834,-79.853353)">
    <path
       sodipodi:type="star"
       style="fill:#000000;stroke:#ffffff;stroke-width:0.3"
       id="path1"
       inkscape:flatsided="true"
       sodipodi:sides="6"
       sodipodi:cx="64.231056"
       sodipodi:cy="76.308685"
       sodipodi:r1="7.4568834"
       sodipodi:r2="6.4578509"
       sodipodi:arg1="0"
       sodipodi:arg2="0.52359878"
       inkscape:rounded="0"
       inkscape:randomized="0"
       d="m 71.68794,76.308685 -3.728442,6.457851 h -7.456884 l -3.728441,-6.457851 3.728441,-6.45785 h 7.456884 z"
       inkscape:export-filename="..\source\hexiesfall-Design-Docs\figs\hexifall-doc-fig2.svg"
       inkscape:export-xdpi="101.24677"
       inkscape:export-ydpi="101.24677"
       transform="translate(-41.715133,29.526069)" />
    <path
       sodipodi:type="star"
       style="fill:#000000;stroke:#ffffff;stroke-width:0.3"
       id="path1-8"
       inkscape:flatsided="true"
       sodipodi:sides="6"
       sodipodi:cx="64.231056"
       sodipodi:cy="76.308685"
       sodipodi:r1="7.4568834"
       sodipodi:r2="6.4578509"
       sodipodi:arg1="0"
       sodipodi:arg2="0.52359878"
       inkscape:rounded="0"
       inkscape:randomized="0"
       d="m 71.68794,76.308685 -3.728442,6.457851 h -7.456884 l -3.728441,-6.457851 3.728441,-6.45785 h 7.456884 z"
       transform="translate(-41.715133,42.44177)" />
    <path
       sodipodi:type="star"
       style="fill:#000000;stroke:#ffffff;stroke-width:0.3"
       id="path1-6"
       inkscape:flatsided="true"
       sodipodi:sides="6"
       sodipodi:cx="64.231056"
       sodipodi:cy="76.308685"
       sodipodi:r1="7.4568834"
       sodipodi:r2="6.4578509"
       sodipodi:arg1="0"
       sodipodi:arg2="0.52359878"
       inkscape:rounded="0"
       inkscape:randomized="0"
       d="m 71.68794,76.308685 -3.728442,6.457851 h -7.456884 l -3.728441,-6.457851 3.728441,-6.45785 h 7.456884 z"
       inkscape:export-filename=".\hexifall-doc-fig2.jpg"
       inkscape:export-xdpi="213.333"
       inkscape:export-ydpi="213.333"
       transform="translate(-19.344483,29.526069)" />
    <path
       sodipodi:type="star"
       style="fill:#000000;stroke:#ffffff;stroke-width:0.3"
       id="path1-89"
       inkscape:flatsided="true"
       sodipodi:sides="6"
       sodipodi:cx="64.231056"
       sodipodi:cy="76.308685"
       sodipodi:r1="7.4568834"
       sodipodi:r2="6.4578509"
       sodipodi:arg1="0"
       sodipodi:arg2="0.52359878"
       inkscape:rounded="0"
       inkscape:randomized="0"
       d="m 71.68794,76.308685 -3.728442,6.457851 h -7.456884 l -3.728441,-6.457851 3.728441,-6.45785 h 7.456884 z"
       transform="translate(-19.344483,42.441769)" />
    <path
       sodipodi:type="star"
       style="fill:#ffffff;stroke:#000000;stroke-width:0.3"
       id="path1-7"
       inkscape:flatsided="true"
       sodipodi:sides="6"
       sodipodi:cx="64.231056"
       sodipodi:cy="76.308685"
       sodipodi:r1="7.4568834"
       sodipodi:r2="6.4578509"
       sodipodi:arg1="0"
       sodipodi:arg2="0.52359878"
       inkscape:rounded="0"
       inkscape:randomized="0"
       d="m 71.68794,76.308685 -3.728442,6.457851 h -7.456884 l -3.728441,-6.457851 3.728441,-6.45785 h 7.456884 z"
       transform="translate(-30.529808,23.068219)" />
    <path
       sodipodi:type="star"
       style="fill:#ffffff;stroke:#000000;stroke-width:0.3"
       id="path1-7-9"
       inkscape:flatsided="true"
       sodipodi:sides="6"
       sodipodi:cx="64.231056"
       sodipodi:cy="76.308685"
       sodipodi:r1="7.4568834"
       sodipodi:r2="6.4578509"
       sodipodi:arg1="0"
       sodipodi:arg2="0.52359878"
       inkscape:rounded="0"
       inkscape:randomized="0"
       d="m 71.68794,76.308685 -3.728442,6.457851 h -7.456884 l -3.728441,-6.457851 3.728441,-6.45785 h 7.456884 z"
       transform="translate(-30.529808,10.152518)" />
    <g
       id="g3-7"
       transform="translate(0.96811584,34.246044)">
      <rect
         style="fill:#ff0000;stroke:#ff0000;stroke-width:0.3"
         id="rect3-5"
         width="2.0586877"
         height="10.156192"
         x="31.703789"
         y="64.772736" />
      <path
         sodipodi:type="star"
         style="fill:#ff0000;stroke:#ff0000;stroke-width:0.3"
         id="path3-2"
         inkscape:flatsided="true"
         sodipodi:sides="3"
         sodipodi:cx="31.703789"
         sodipodi:cy="72.465805"
         sodipodi:r1="7.4669819"
         sodipodi:r2="3.7334909"
         sodipodi:arg1="-0.52359878"
         sodipodi:arg2="0.52359878"
         inkscape:rounded="0"
         inkscape:randomized="0"
         d="M 38.170385,68.732314 31.703789,79.932787 25.237193,68.732314 Z"
         inkscape:transform-center-y="0.67168058"
         transform="matrix(0.36761557,0,0,0.35981376,21.078326,49.685825)" />
    </g>
  </g>
</svg>
