<?xml version="1.0" encoding="UTF-8" standalone="no"?>
<!-- Created with Inkscape (http://www.inkscape.org/) -->

<svg
   width="60.232407mm"
   height="77.869202mm"
   viewBox="0 0 60.232407 77.869202"
   version="1.1"
   id="svg1"
   inkscape:version="1.3 (0e150ed6c4, 2023-07-21)"
   sodipodi:docname="hexifall-doc-fig-tmpl.svg"
   xmlns:inkscape="http://www.inkscape.org/namespaces/inkscape"
   xmlns:sodipodi="http://sodipodi.sourceforge.net/DTD/sodipodi-0.dtd"
   xmlns="http://www.w3.org/2000/svg"
   xmlns:svg="http://www.w3.org/2000/svg">
  <sodipodi:namedview
     id="namedview1"
     pagecolor="#ffffff"
     bordercolor="#666666"
     borderopacity="1.0"
     inkscape:showpageshadow="2"
     inkscape:pageopacity="0.0"
     inkscape:pagecheckerboard="0"
     inkscape:deskcolor="#d1d1d1"
     inkscape:document-units="mm"
     inkscape:zoom="0.96390293"
     inkscape:cx="382.29991"
     inkscape:cy="713.24609"
     inkscape:window-width="1366"
     inkscape:window-height="715"
     inkscape:window-x="-8"
     inkscape:window-y="-8"
     inkscape:window-maximized="1"
     inkscape:current-layer="layer1"
     inkscape:export-bgcolor="#ffffff00"
     showgrid="false" />
  <defs
     id="defs1" />
  <g
     inkscape:label="圖層 1"
     inkscape:groupmode="layer"
     id="layer1"
     transform="translate(-35.368016,-150.92898)">
    <path
       sodipodi:type="star"
       style="fill:#000000;stroke:#ffffff;stroke-width:0.3"
       id="path1-2"
       inkscape:flatsided="true"
       sodipodi:sides="6"
       sodipodi:cx="64.231056"
       sodipodi:cy="76.308685"
       sodipodi:r1="7.4568834"
       sodipodi:r2="6.4578509"
       sodipodi:arg1="0"
       sodipodi:arg2="0.52359878"
       inkscape:rounded="0"
       inkscape:randomized="0"
       d="m 71.68794,76.308685 -3.728442,6.457851 h -7.456884 l -3.728441,-6.457851 3.728441,-6.45785 h 7.456884 z"
       inkscape:export-filename="..\source\hexiesfall-Design-Docs\figs\hexifall-doc-fig6.svg"
       inkscape:export-xdpi="101.24677"
       inkscape:export-ydpi="101.24677"
       transform="translate(-9.9321569,107.03454)" />
    <path
       sodipodi:type="star"
       style="fill:#000000;stroke:#ffffff;stroke-width:0.3"
       id="path1-8-3"
       inkscape:flatsided="true"
       sodipodi:sides="6"
       sodipodi:cx="64.231056"
       sodipodi:cy="76.308685"
       sodipodi:r1="7.4568834"
       sodipodi:r2="6.4578509"
       sodipodi:arg1="0"
       sodipodi:arg2="0.52359878"
       inkscape:rounded="0"
       inkscape:randomized="0"
       d="m 71.68794,76.308685 -3.728442,6.457851 h -7.456884 l -3.728441,-6.457851 3.728441,-6.45785 h 7.456884 z"
       transform="translate(-21.117483,139.32379)" />
    <path
       sodipodi:type="star"
       style="fill:#000000;stroke:#ffffff;stroke-width:0.3"
       id="path1-8-7"
       inkscape:flatsided="true"
       sodipodi:sides="6"
       sodipodi:cx="64.231056"
       sodipodi:cy="76.308685"
       sodipodi:r1="7.4568834"
       sodipodi:r2="6.4578509"
       sodipodi:arg1="0"
       sodipodi:arg2="0.52359878"
       inkscape:rounded="0"
       inkscape:randomized="0"
       d="m 71.68794,76.308685 -3.728442,6.457851 h -7.456884 l -3.728441,-6.457851 3.728441,-6.45785 h 7.456884 z"
       transform="translate(-9.9321566,145.78164)" />
    <path
       sodipodi:type="star"
       style="fill:#000000;stroke:#ffffff;stroke-width:0.3"
       id="path1-8-74"
       inkscape:flatsided="true"
       sodipodi:sides="6"
       sodipodi:cx="64.231056"
       sodipodi:cy="76.308685"
       sodipodi:r1="7.4568834"
       sodipodi:r2="6.4578509"
       sodipodi:arg1="0"
       sodipodi:arg2="0.52359878"
       inkscape:rounded="0"
       inkscape:randomized="0"
       d="m 71.68794,76.308685 -3.728442,6.457851 h -7.456884 l -3.728441,-6.457851 3.728441,-6.45785 h 7.456884 z"
       transform="translate(1.2531678,139.32379)" />
    <path
       sodipodi:type="star"
       style="fill:#000000;stroke:#ffffff;stroke-width:0.3"
       id="path1-8-34"
       inkscape:flatsided="true"
       sodipodi:sides="6"
       sodipodi:cx="64.231056"
       sodipodi:cy="76.308685"
       sodipodi:r1="7.4568834"
       sodipodi:r2="6.4578509"
       sodipodi:arg1="0"
       sodipodi:arg2="0.52359878"
       inkscape:rounded="0"
       inkscape:randomized="0"
       d="m 71.68794,76.308685 -3.728442,6.457851 h -7.456884 l -3.728441,-6.457851 3.728441,-6.45785 h 7.456884 z"
       transform="translate(12.438492,145.78164)" />
    <path
       sodipodi:type="star"
       style="fill:#000000;stroke:#ffffff;stroke-width:0.3"
       id="path1-8-2"
       inkscape:flatsided="true"
       sodipodi:sides="6"
       sodipodi:cx="64.231056"
       sodipodi:cy="76.308685"
       sodipodi:r1="7.4568834"
       sodipodi:r2="6.4578509"
       sodipodi:arg1="0"
       sodipodi:arg2="0.52359878"
       inkscape:rounded="0"
       inkscape:randomized="0"
       d="m 71.68794,76.308685 -3.728442,6.457851 h -7.456884 l -3.728441,-6.457851 3.728441,-6.45785 h 7.456884 z"
       transform="translate(23.623815,139.32379)" />
    <path
       sodipodi:type="star"
       style="fill:#000000;stroke:#ffffff;stroke-width:0.3"
       id="path1-8-6"
       inkscape:flatsided="true"
       sodipodi:sides="6"
       sodipodi:cx="64.231056"
       sodipodi:cy="76.308685"
       sodipodi:r1="7.4568834"
       sodipodi:r2="6.4578509"
       sodipodi:arg1="0"
       sodipodi:arg2="0.52359878"
       inkscape:rounded="0"
       inkscape:randomized="0"
       d="m 71.68794,76.308685 -3.728442,6.457851 h -7.456884 l -3.728441,-6.457851 3.728441,-6.45785 h 7.456884 z"
       transform="translate(12.438493,132.86594)" />
    <path
       sodipodi:type="star"
       style="fill:#000000;stroke:#ffffff;stroke-width:0.3"
       id="path1-8-56"
       inkscape:flatsided="true"
       sodipodi:sides="6"
       sodipodi:cx="64.231056"
       sodipodi:cy="76.308685"
       sodipodi:r1="7.4568834"
       sodipodi:r2="6.4578509"
       sodipodi:arg1="0"
       sodipodi:arg2="0.52359878"
       inkscape:rounded="0"
       inkscape:randomized="0"
       d="m 71.68794,76.308685 -3.728442,6.457851 h -7.456884 l -3.728441,-6.457851 3.728441,-6.45785 h 7.456884 z"
       transform="translate(1.2531679,113.49239)" />
    <path
       sodipodi:type="star"
       style="fill:#000000;stroke:#ffffff;stroke-width:0.3"
       id="path1-8-47"
       inkscape:flatsided="true"
       sodipodi:sides="6"
       sodipodi:cx="64.231056"
       sodipodi:cy="76.308685"
       sodipodi:r1="7.4568834"
       sodipodi:r2="6.4578509"
       sodipodi:arg1="0"
       sodipodi:arg2="0.52359878"
       inkscape:rounded="0"
       inkscape:randomized="0"
       d="m 71.68794,76.308685 -3.728442,6.457851 h -7.456884 l -3.728441,-6.457851 3.728441,-6.45785 h 7.456884 z"
       transform="translate(-9.9321566,132.86594)" />
    <path
       sodipodi:type="star"
       style="fill:#000000;stroke:#ffffff;stroke-width:0.3"
       id="path1-7-4-7-1-1"
       inkscape:flatsided="true"
       sodipodi:sides="6"
       sodipodi:cx="64.231056"
       sodipodi:cy="76.308685"
       sodipodi:r1="7.4568834"
       sodipodi:r2="6.4578509"
       sodipodi:arg1="0"
       sodipodi:arg2="0.52359878"
       inkscape:rounded="0"
       inkscape:randomized="0"
       d="m 71.68794,76.308685 -3.728442,6.457851 h -7.456884 l -3.728441,-6.457851 3.728441,-6.45785 h 7.456884 z"
       transform="translate(23.623815,126.40809)" />
    <path
       sodipodi:type="star"
       style="fill:#000000;stroke:#ffffff;stroke-width:0.3"
       id="path1-7-4-7-1-3"
       inkscape:flatsided="true"
       sodipodi:sides="6"
       sodipodi:cx="64.231056"
       sodipodi:cy="76.308685"
       sodipodi:r1="7.4568834"
       sodipodi:r2="6.4578509"
       sodipodi:arg1="0"
       sodipodi:arg2="0.52359878"
       inkscape:rounded="0"
       inkscape:randomized="0"
       d="m 71.68794,76.308685 -3.728442,6.457851 h -7.456884 l -3.728441,-6.457851 3.728441,-6.45785 h 7.456884 z"
       transform="translate(23.623815,113.49239)" />
    <path
       style="fill:none;stroke:#000000;stroke-width:0.5;stroke-linecap:butt;stroke-linejoin:miter;stroke-dasharray:none;stroke-opacity:1"
       d="m 35.65669,151.05398 3.728442,6.45785 -3.728442,6.45785 3.728442,6.45785 -3.728442,6.45785 3.728442,6.45785 -3.728442,6.45785 3.728442,6.45785 -3.728442,6.45785 3.728442,6.45785 -3.728442,6.45785 3.728442,6.45785 h 7.456884 l 3.728442,6.45785 h 7.456882 l 3.728442,-6.45785 h 7.456884 l 3.72844,6.45785 h 7.456884 l 3.728442,-6.45785 h 7.456879 l 3.72844,-6.45785 -3.72844,-6.45785 3.72844,-6.45785 -3.72844,-6.45785 3.72844,-6.45785 -3.72844,-6.45785 3.72844,-6.45785 -3.72844,-6.45785 3.72844,-6.45785 -3.72844,-6.45785 3.72844,-6.45785 v 0"
       id="path2" />
  </g>
</svg>
