<?xml version="1.0" encoding="UTF-8" standalone="no"?>
<!-- Created with Inkscape (http://www.inkscape.org/) -->

<svg
   width="48.816158mm"
   height="45.504951mm"
   viewBox="0 0 48.816158 45.504951"
   version="1.1"
   id="svg1"
   inkscape:version="1.3 (0e150ed6c4, 2023-07-21)"
   sodipodi:docname="hexifall-doc-fig-tmpl.svg"
   xmlns:inkscape="http://www.inkscape.org/namespaces/inkscape"
   xmlns:sodipodi="http://sodipodi.sourceforge.net/DTD/sodipodi-0.dtd"
   xmlns="http://www.w3.org/2000/svg"
   xmlns:svg="http://www.w3.org/2000/svg">
  <sodipodi:namedview
     id="namedview1"
     pagecolor="#ffffff"
     bordercolor="#666666"
     borderopacity="1.0"
     inkscape:showpageshadow="2"
     inkscape:pageopacity="0.0"
     inkscape:pagecheckerboard="0"
     inkscape:deskcolor="#d1d1d1"
     inkscape:document-units="mm"
     inkscape:zoom="0.48195147"
     inkscape:cx="532.21127"
     inkscape:cy="621.43187"
     inkscape:window-width="1366"
     inkscape:window-height="715"
     inkscape:window-x="-8"
     inkscape:window-y="-8"
     inkscape:window-maximized="1"
     inkscape:current-layer="layer1"
     inkscape:export-bgcolor="#ffffff00"
     showgrid="false" />
  <defs
     id="defs1" />
  <g
     inkscape:label="圖層 1"
     inkscape:groupmode="layer"
     id="layer1"
     transform="translate(-111.20665,-98.428205)">
    <path
       sodipodi:type="star"
       style="fill:#ffffff;stroke:#000000;stroke-width:0.3"
       id="path1-7"
       inkscape:flatsided="true"
       sodipodi:sides="6"
       sodipodi:cx="64.231056"
       sodipodi:cy="76.308685"
       sodipodi:r1="7.4568834"
       sodipodi:r2="6.4578509"
       sodipodi:arg1="0"
       sodipodi:arg2="0.52359878"
       inkscape:rounded="0"
       inkscape:randomized="0"
       d="m 71.68794,76.308685 -3.728442,6.457851 h -7.456884 l -3.728441,-6.457851 3.728441,-6.45785 h 7.456884 z"
       transform="translate(65.791009,54.558768)" />
    <path
       sodipodi:type="star"
       style="fill:#ffffff;stroke:#000000;stroke-width:0.3"
       id="path1-7-9"
       inkscape:flatsided="true"
       sodipodi:sides="6"
       sodipodi:cx="64.231056"
       sodipodi:cy="76.308685"
       sodipodi:r1="7.4568834"
       sodipodi:r2="6.4578509"
       sodipodi:arg1="0"
       sodipodi:arg2="0.52359878"
       inkscape:rounded="0"
       inkscape:randomized="0"
       d="m 71.68794,76.308685 -3.728442,6.457851 h -7.456884 l -3.728441,-6.457851 3.728441,-6.45785 h 7.456884 z"
       transform="translate(54.605684,35.185217)" />
    <path
       sodipodi:type="star"
       style="fill:#ffffff;stroke:#000000;stroke-width:0.3"
       id="path1-7-4"
       inkscape:flatsided="true"
       sodipodi:sides="6"
       sodipodi:cx="64.231056"
       sodipodi:cy="76.308685"
       sodipodi:r1="7.4568834"
       sodipodi:r2="6.4578509"
       sodipodi:arg1="0"
       sodipodi:arg2="0.52359878"
       inkscape:rounded="0"
       inkscape:randomized="0"
       d="m 71.68794,76.308685 -3.728442,6.457851 h -7.456884 l -3.728441,-6.457851 3.728441,-6.45785 h 7.456884 z"
       transform="translate(54.605684,48.100918)" />
    <path
       sodipodi:type="star"
       style="fill:#aaccff;stroke:#000080;stroke-width:0.3"
       id="path1-7-4-7-8"
       inkscape:flatsided="true"
       sodipodi:sides="6"
       sodipodi:cx="64.231056"
       sodipodi:cy="76.308685"
       sodipodi:r1="7.4568834"
       sodipodi:r2="6.4578509"
       sodipodi:arg1="0"
       sodipodi:arg2="0.52359878"
       inkscape:rounded="0"
       inkscape:randomized="0"
       d="m 71.68794,76.308685 -3.728442,6.457851 h -7.456884 l -3.728441,-6.457851 3.728441,-6.45785 h 7.456884 z"
       transform="translate(88.161659,41.643068)" />
    <path
       sodipodi:type="star"
       style="fill:#aaccff;stroke:#000080;stroke-width:0.3"
       id="path1-7-4-7-8-1-2"
       inkscape:flatsided="true"
       sodipodi:sides="6"
       sodipodi:cx="64.231056"
       sodipodi:cy="76.308685"
       sodipodi:r1="7.4568834"
       sodipodi:r2="6.4578509"
       sodipodi:arg1="0"
       sodipodi:arg2="0.52359878"
       inkscape:rounded="0"
       inkscape:randomized="0"
       d="m 71.68794,76.308685 -3.728442,6.457851 h -7.456884 l -3.728441,-6.457851 3.728441,-6.45785 h 7.456884 z"
       transform="translate(76.976334,48.100918)" />
    <path
       sodipodi:type="star"
       style="fill:#aaccff;stroke:#000080;stroke-width:0.3"
       id="path1-7-4-7-1-5"
       inkscape:flatsided="true"
       sodipodi:sides="6"
       sodipodi:cx="64.231056"
       sodipodi:cy="76.308685"
       sodipodi:r1="7.4568834"
       sodipodi:r2="6.4578509"
       sodipodi:arg1="0"
       sodipodi:arg2="0.52359878"
       inkscape:rounded="0"
       inkscape:randomized="0"
       d="m 71.68794,76.308685 -3.728442,6.457851 h -7.456884 l -3.728441,-6.457851 3.728441,-6.45785 h 7.456884 z"
       transform="translate(65.791009,41.643067)" />
    <path
       sodipodi:type="star"
       style="fill:#ffffff;stroke:#000000;stroke-width:0.3"
       id="path1-7-9-9"
       inkscape:flatsided="true"
       sodipodi:sides="6"
       sodipodi:cx="64.231056"
       sodipodi:cy="76.308685"
       sodipodi:r1="7.4568834"
       sodipodi:r2="6.4578509"
       sodipodi:arg1="0"
       sodipodi:arg2="0.52359878"
       inkscape:rounded="0"
       inkscape:randomized="0"
       d="m 71.68794,76.308685 -3.728442,6.457851 h -7.456884 l -3.728441,-6.457851 3.728441,-6.45785 h 7.456884 z"
       transform="translate(65.791009,28.727367)" />
    <path
       sodipodi:type="star"
       style="fill:#ffffff;stroke:#000000;stroke-width:0.3"
       id="path1-7-9-9-6"
       inkscape:flatsided="true"
       sodipodi:sides="6"
       sodipodi:cx="64.231056"
       sodipodi:cy="76.308685"
       sodipodi:r1="7.4568834"
       sodipodi:r2="6.4578509"
       sodipodi:arg1="0"
       sodipodi:arg2="0.52359878"
       inkscape:rounded="0"
       inkscape:randomized="0"
       d="m 71.68794,76.308685 -3.728442,6.457851 h -7.456884 l -3.728441,-6.457851 3.728441,-6.45785 h 7.456884 z"
       transform="translate(54.605684,61.016618)" />
    <path
       sodipodi:type="star"
       style="fill:#aaccff;stroke:#000080;stroke-width:0.3"
       id="path1-7-4-7-0"
       inkscape:flatsided="true"
       sodipodi:sides="6"
       sodipodi:cx="64.231056"
       sodipodi:cy="76.308685"
       sodipodi:r1="7.4568834"
       sodipodi:r2="6.4578509"
       sodipodi:arg1="0"
       sodipodi:arg2="0.52359878"
       inkscape:rounded="0"
       inkscape:randomized="0"
       d="m 71.68794,76.308685 -3.728442,6.457851 h -7.456884 l -3.728441,-6.457851 3.728441,-6.45785 h 7.456884 z"
       transform="translate(76.976334,61.016619)" />
    <path
       sodipodi:type="star"
       style="fill:#aaccff;stroke:#000080;stroke-width:0.3"
       id="path1-7-4-7-1-9"
       inkscape:flatsided="true"
       sodipodi:sides="6"
       sodipodi:cx="64.231056"
       sodipodi:cy="76.308685"
       sodipodi:r1="7.4568834"
       sodipodi:r2="6.4578509"
       sodipodi:arg1="0"
       sodipodi:arg2="0.52359878"
       inkscape:rounded="0"
       inkscape:randomized="0"
       d="m 71.68794,76.308685 -3.728442,6.457851 h -7.456884 l -3.728441,-6.457851 3.728441,-6.45785 h 7.456884 z"
       transform="translate(88.161659,28.727367)" />
  </g>
</svg>
